2023-01-21T23:34:25Z,100,true,4.66
2023-01-23T01:15:43Z,100,true,6.253
2023-01-23T23:48:33Z,100,true,5.281
2023-01-25T21:45:06Z,100,true,7.97
2023-03-22T12:52:05Z,100,true,4.59
2023-03-22T21:45:51Z,100,true,7.331
2023-03-23T21:28:44Z,100,true,4.459
2023-03-24T21:37:09Z,100,true,4.31
2023-03-27T22:29:36Z,100,true,4.882
2023-03-28T21:29:29Z,100,true,4.33
2023-03-29T21:34:27Z,100,true,37.61
2023-03-30T21:31:38Z,100,true,5.949
2023-03-31T21:55:12Z,100,true,6.422
2023-04-01T22:01:17Z,100,true,4.432
2023-04-03T21:51:32Z,100,true,4.341
2023-04-04T21:49:54Z,100,true,14.717
2023-04-06T21:48:00Z,100,true,7.421
2023-04-07T21:37:08Z,2,false,0
2023-04-11T21:51:21Z,100,true,5.433
2023-04-12T22:29:17Z,100,true,4.186
2023-04-14T21:48:07Z,100,true,5.855
2023-04-15T22:06:36Z,100,true,5.989
2023-04-18T22:43:02Z,100,true,4.4
2023-04-19T22:21:58Z,100,true,3.43
2023-04-20T21:56:06Z,100,true,3.709
2023-04-21T21:49:41Z,100,true,3.578
2023-04-22T21:57:30Z,100,true,4.596
2023-04-23T22:20:30Z,100,true,6.459
2023-04-24T21:59:49Z,100,true,5.894
2023-04-25T21:55:51Z,100,true,12.3
2023-04-26T22:53:40Z,100,true,3.415
2023-04-27T21:49:19Z,100,true,4.358
2023-04-28T22:12:25Z,100,true,8.405
