2023-01-20T23:54:49Z,100,true,5.471
2023-01-23T01:15:43Z,100,true,4.542
2023-01-23T23:48:33Z,100,true,4.499
2023-03-22T12:52:05Z,100,true,6.017
2023-03-22T21:45:51Z,100,true,37.354
2023-03-27T22:29:36Z,100,true,17.487
2023-03-31T21:55:12Z,100,true,10.108
2023-04-03T21:51:32Z,100,true,15.559
2023-04-04T21:49:54Z,100,true,4.302
2023-04-06T21:48:00Z,100,true,6.531
2023-04-11T21:51:21Z,100,true,4.195
2023-04-12T22:29:17Z,100,true,3.549
2023-04-18T22:43:02Z,100,true,7.393
2023-04-19T22:21:58Z,100,true,6.329
2023-04-20T21:56:06Z,100,true,10.33
2023-04-21T21:49:41Z,100,true,7.584
2023-04-22T21:57:30Z,100,true,4.596
2023-04-23T22:20:30Z,100,true,5.339
2023-04-24T21:59:49Z,2,false,0
2023-04-25T21:55:51Z,100,true,4.343
2023-04-26T22:53:40Z,100,true,4.382
2023-04-27T21:49:19Z,100,true,4.401
2023-04-28T22:12:25Z,100,true,4.325
