2023-01-21T23:34:25Z,100,true,5.432
2023-01-23T01:15:43Z,100,true,5.077
2023-01-23T23:48:33Z,100,true,5.285
2023-03-22T12:52:05Z,100,true,4.26
2023-03-22T21:45:51Z,100,true,4.285
2023-04-03T21:51:32Z,100,true,4.331
2023-04-11T21:51:21Z,100,true,9.361
2023-04-12T22:29:17Z,100,true,4.407
2023-04-18T22:43:02Z,100,true,25.843
2023-04-19T22:21:58Z,100,true,6.793
2023-04-20T21:56:06Z,100,true,24.159
2023-04-21T21:49:41Z,100,true,3.568
2023-04-22T21:57:30Z,100,true,3.584
2023-04-23T22:20:30Z,100,true,5.447
2023-04-24T21:59:49Z,100,true,5.326
2023-04-25T21:55:51Z,100,true,3.767
2023-04-26T22:53:40Z,100,true,4.564
2023-04-27T21:49:19Z,100,true,4.18
2023-04-28T22:12:25Z,100,true,21.665
