2022-12-07T22:56:51Z,100,true,5.336
2022-12-09T22:49:34Z,100,true,4.159
2022-12-10T22:53:31Z,100,true,5.549
2022-12-11T23:14:51Z,100,true,3.391
2022-12-12T22:53:35Z,100,true,3.607
2022-12-12T22:53:35Z,100,true,3.607
