2023-01-21T23:34:25Z,100,true,6.681
2023-01-23T01:15:43Z,100,true,4.795
2023-01-23T23:48:33Z,100,true,6.1
2023-01-25T21:45:06Z,100,true,4.526
2023-01-26T21:28:23Z,100,true,4.899
2023-01-27T22:21:05Z,100,true,4.632
2023-01-28T21:53:15Z,100,true,3.589
2023-01-29T21:42:12Z,100,true,5.797
2023-01-30T21:13:56Z,100,true,10.309
2023-01-31T21:34:27Z,100,true,4.353
2023-02-01T22:44:18Z,100,true,3.557
2023-02-02T22:16:32Z,100,true,3.312
2023-02-03T21:52:39Z,100,true,3.208
2023-02-04T22:27:18Z,100,true,3.439
2023-02-05T23:22:12Z,100,true,3.754
2023-02-06T23:12:10Z,100,true,5.307
2023-02-07T23:18:19Z,100,true,5.123
2023-02-08T22:00:49Z,100,true,4.22
2023-02-10T21:35:08Z,100,true,5.96
2023-02-11T22:18:36Z,100,true,4.29
2023-02-12T21:31:35Z,100,true,5.005
2023-02-13T22:08:42Z,100,true,5.441
2023-02-14T21:23:12Z,100,true,4.1
2023-02-15T21:45:26Z,100,true,7.399
2023-02-16T22:13:40Z,100,true,5.9190000000000005
2023-02-17T21:59:46Z,100,true,4.668
2023-02-18T21:42:41Z,100,true,4.495
2023-02-19T21:39:54Z,100,true,5.392
2023-02-20T21:41:36Z,100,true,4.477
2023-02-21T21:45:11Z,100,true,4.436
2023-02-22T21:58:09Z,100,true,3.529
2023-02-23T22:00:25Z,100,true,3.5460000000000003
2023-02-24T21:50:33Z,100,true,3.489
2023-03-22T12:52:05Z,100,true,3.753
2023-03-22T21:45:51Z,100,true,3.402
2023-03-23T21:28:44Z,100,true,5.563
2023-03-24T21:37:09Z,100,true,3.384
2023-03-27T22:29:36Z,100,true,12.009
2023-03-28T21:29:29Z,100,true,7.067
2023-03-29T21:34:27Z,100,true,4.333
2023-03-30T21:31:38Z,100,true,5.032
2023-03-31T21:55:12Z,100,true,7.51
2023-04-01T22:01:17Z,100,true,4.4030000000000005
2023-04-02T21:36:15Z,100,true,5.82
2023-04-03T21:51:32Z,100,true,8.447
2023-04-04T21:49:54Z,100,true,4.349
2023-04-05T21:28:35Z,95,timeout,0
2023-04-06T21:48:00Z,100,true,5.146
2023-04-07T21:37:08Z,100,true,4.5120000000000005
2023-04-08T21:33:04Z,100,true,4.3469999999999995
2023-04-09T21:43:26Z,100,true,5.856
2023-04-10T21:29:38Z,2,false,0
2023-04-11T21:51:21Z,100,true,4.442
2023-04-12T22:29:17Z,100,true,4.335
2023-04-13T21:35:57Z,100,true,3.556
2023-04-14T21:48:07Z,100,true,4.465
2023-04-15T22:06:36Z,100,true,4.166
2023-04-16T21:43:52Z,100,true,6.031
2023-04-17T21:31:19Z,100,true,4.474
2023-04-18T22:43:02Z,100,true,9.252
2023-04-19T22:21:58Z,100,true,4.782
2023-04-20T21:56:06Z,2,false,0
2023-04-21T21:49:41Z,100,true,7.307
2023-04-22T21:57:30Z,100,true,7.464
2023-04-23T22:20:30Z,2,false,0
2023-04-25T21:55:51Z,100,true,4.493
2023-04-26T22:53:40Z,100,true,3.525
2023-04-27T21:49:19Z,100,true,6.429
2023-04-28T22:12:25Z,100,true,4.576
