2022-12-02T22:49:33Z,100,true,4.651
2022-12-03T23:07:51Z,100,true,5.917
2022-12-04T23:40:54Z,100,true,4.673
2022-12-05T22:54:15Z,100,true,4.918
2022-12-06T23:12:18Z,100,true,4.596
2022-12-07T22:56:51Z,100,true,5.505
2022-12-09T22:49:34Z,100,true,6.48
2022-12-10T22:53:31Z,100,true,4.698
2022-12-11T23:14:51Z,100,true,4.8309999999999995
2022-12-12T22:53:35Z,100,true,4.677
2022-12-12T22:53:35Z,100,true,4.677
