2022-12-02T22:49:33Z,100,true,4.59
2022-12-03T23:07:51Z,100,true,4.589
2022-12-04T23:40:54Z,100,true,6.185
2022-12-05T22:54:15Z,100,true,5.667
2022-12-06T23:12:18Z,100,true,4.499
2022-12-07T22:56:51Z,100,true,5.555
2022-12-09T22:49:34Z,100,true,5.227
2022-12-10T22:53:31Z,100,true,6.6
