2022-12-02T22:49:33Z,100,true,5.026
2022-12-03T23:07:51Z,100,true,4.443
2022-12-04T23:40:54Z,100,true,5.343
2022-12-05T22:54:15Z,100,true,4.571
2022-12-06T23:12:18Z,100,true,4.712
2022-12-07T22:56:51Z,100,true,4.698
2022-12-09T22:49:34Z,100,true,5.836
2022-12-10T22:53:31Z,100,true,4.625
2022-12-11T23:14:51Z,100,true,6.912
2022-12-12T22:53:35Z,100,true,4.809
2022-12-12T22:53:35Z,100,true,4.809
