2022-12-02T22:49:33Z,100,true,7.46
2022-12-03T23:07:51Z,100,true,6.686
2022-12-04T23:40:54Z,100,true,6.908
2022-12-05T22:54:15Z,100,true,6.225
2022-12-06T23:12:18Z,100,true,6.223
2022-12-07T22:56:51Z,100,true,6.2
2022-12-09T22:49:34Z,100,true,6.415
2022-12-10T22:53:31Z,100,true,7.132
