2022-12-02T20:31:24Z,10,false,0
2022-12-03T20:28:57Z,10,false,0
2022-12-04T20:31:15Z,10,false,0
2022-12-05T20:31:17Z,10,false,0
2022-12-06T20:31:17Z,10,false,0
2022-12-07T20:31:15Z,10,false,0
2022-12-08T20:34:25Z,100,true,119.587
2022-12-09T20:31:19Z,10,false,0
2022-12-10T20:31:16Z,10,false,0
2022-12-11T20:31:18Z,10,false,0
2022-12-12T20:29:34Z,10,false,0
2022-12-13T20:31:16Z,10,false,0
2023-01-01T20:30:56Z,10,false,0
2023-01-02T20:30:43Z,10,false,0
2023-01-03T20:30:42Z,25,timeout,0
2023-01-04T20:29:00Z,10,false,0
2023-01-13T12:37:14Z,10,false,0
2023-01-14T20:31:19Z,10,false,0
2023-01-15T20:31:14Z,10,false,0
2023-01-16T20:29:20Z,100,true,50.173
2023-01-17T20:31:10Z,10,false,0
2023-01-18T20:29:23Z,10,false,0
2023-01-19T20:31:18Z,10,false,0
2023-01-20T20:31:41Z,10,false,0
2023-01-21T20:31:28Z,10,false,0
2023-01-22T20:31:42Z,25,timeout,0
2023-01-23T20:31:29Z,10,false,0
2023-01-24T20:30:55Z,10,false,0
2023-01-25T20:31:01Z,10,false,0
2023-01-26T20:30:59Z,10,false,0
2023-01-27T20:30:46Z,10,false,0
2023-01-28T20:30:43Z,10,false,0
2023-01-29T20:27:59Z,10,false,0
2023-01-30T19:42:38Z,100,true,34.056
2023-01-31T19:04:05Z,100,true,32.226
2023-02-01T20:15:56Z,100,true,61.217
2023-02-02T20:20:26Z,100,true,107.313
2023-02-03T20:13:41Z,100,true,57.443
2023-02-04T20:23:48Z,100,true,156.145
2023-02-05T20:22:30Z,100,true,31.902
2023-02-06T20:17:15Z,100,true,61.843
2023-02-07T20:28:21Z,100,true,49.57
2023-02-08T20:14:39Z,100,true,40.485
2023-02-10T20:20:33Z,100,true,71.522
2023-02-11T20:23:13Z,100,true,57.522
2023-02-12T20:11:52Z,100,true,35.171
2023-02-13T20:17:42Z,100,true,40.989
2023-02-14T20:17:35Z,25,timeout,0
2023-02-15T20:22:59Z,100,true,95.294
2023-02-16T20:13:05Z,100,true,72.342
2023-02-17T20:16:07Z,100,true,146.499
2023-02-18T20:22:12Z,100,true,60.075
2023-02-19T20:22:07Z,100,true,47.242
2023-02-20T20:10:16Z,100,true,21.579
2023-02-21T20:17:08Z,100,true,93.624
2023-02-22T20:13:09Z,100,true,20.388
2023-02-23T20:23:36Z,100,true,68.17
2023-02-24T20:16:27Z,45,timeout,0
2023-03-22T11:31:07Z,100,true,93.46
2023-03-22T20:12:47Z,100,true,68.163
2023-03-23T20:14:08Z,100,true,26.351
2023-03-24T20:19:24Z,100,true,69.754
2023-03-25T20:20:19Z,100,true,76.27
2023-03-27T20:14:40Z,100,true,52.313
2023-03-29T20:15:39Z,100,true,81.023
2023-03-30T20:14:14Z,100,true,19.752
2023-03-31T20:19:26Z,100,true,61.367
2023-04-01T20:16:51Z,100,true,110.387
2023-04-02T20:20:09Z,100,true,36.533
2023-04-03T20:22:59Z,100,true,90.214
2023-04-04T20:18:36Z,100,true,96.106
2023-04-05T20:17:36Z,100,true,68.642
2023-04-06T20:23:28Z,100,true,108.896
2023-04-07T20:22:28Z,100,true,114.174
2023-04-08T20:20:53Z,100,true,70.488
2023-04-09T20:17:28Z,100,true,39.426
2023-04-10T20:16:18Z,100,true,69.228
2023-04-11T20:11:01Z,100,true,34.215
2023-04-12T20:16:09Z,100,true,29.375
2023-04-13T20:16:28Z,100,true,35.926
2023-04-14T20:21:03Z,100,true,57.566
2023-04-15T20:18:20Z,100,true,92.032
2023-04-16T20:16:26Z,100,true,49.791
2023-04-17T20:17:10Z,100,true,42.777
2023-04-18T20:21:26Z,100,true,39.482
2023-04-19T20:15:59Z,100,true,27.31
2023-04-20T20:16:47Z,100,true,44.92
2023-04-21T20:15:22Z,100,true,44.124
2023-04-22T20:14:35Z,100,true,137.423
2023-04-23T20:18:39Z,100,true,44.825
2023-04-24T20:16:41Z,100,true,73.283
2023-04-25T20:13:09Z,100,true,77.149
2023-04-26T20:17:14Z,100,true,84.488
2023-04-27T20:15:33Z,100,true,58.212
2023-04-28T20:16:47Z,100,true,34.74
