2022-12-02T20:31:24Z,10,false,0
2022-12-03T20:28:57Z,25,false,0
2022-12-04T20:31:15Z,10,false,0
2022-12-05T20:31:17Z,100,true,53.111
2022-12-06T20:31:17Z,10,false,0
2022-12-07T20:31:15Z,50,timeout,0
2022-12-08T20:34:25Z,10,false,0
2022-12-09T20:31:19Z,10,false,0
2022-12-10T20:31:15Z,10,false,0
2022-12-11T20:31:18Z,10,false,0
2022-12-12T20:29:33Z,10,false,0
2022-12-13T20:31:16Z,10,false,0
2023-01-01T20:30:56Z,10,false,0
2023-01-02T20:30:43Z,10,false,0
2023-01-03T20:30:42Z,25,timeout,0
2023-01-04T20:29:00Z,10,false,0
2023-01-13T12:37:14Z,10,false,0
2023-01-14T20:31:19Z,10,false,0
2023-01-15T20:31:14Z,10,false,0
2023-01-16T20:29:20Z,10,false,0
2023-01-17T20:31:10Z,10,false,0
2023-01-18T20:29:23Z,10,false,0
2023-01-19T20:31:18Z,10,false,0
2023-01-20T20:31:41Z,10,false,0
2023-01-21T20:31:28Z,10,false,0
2023-01-22T20:31:42Z,10,false,0
2023-01-23T20:31:29Z,10,false,0
2023-01-24T20:30:55Z,10,false,0
2023-01-25T20:31:01Z,10,false,0
2023-01-26T20:30:59Z,25,timeout,0
2023-01-27T20:30:46Z,10,false,0
2023-01-28T20:30:43Z,10,false,0
2023-01-29T20:27:59Z,50,timeout,0
2023-01-30T19:42:37Z,25,timeout,0
2023-01-31T19:04:04Z,100,true,135.316
2023-02-01T20:15:56Z,100,true,98.629
2023-02-02T20:20:26Z,100,true,86.579
2023-02-03T20:13:40Z,100,true,48.873
2023-02-04T20:23:47Z,50,timeout,0
2023-02-05T20:22:29Z,73,timeout,0
2023-02-06T20:17:14Z,100,true,47.291
2023-02-07T20:28:21Z,66,timeout,0
2023-02-08T20:14:39Z,100,true,86.084
2023-02-10T20:20:32Z,100,true,131.623
2023-02-11T20:23:13Z,50,timeout,0
2023-02-12T20:11:51Z,100,true,40.881
2023-02-13T20:17:41Z,100,true,122.298
2023-02-14T20:17:34Z,100,true,88.11
2023-02-15T20:22:59Z,100,true,62.435
2023-02-16T20:13:04Z,100,true,21.363
2023-02-17T20:16:06Z,100,true,54.606
2023-02-18T20:22:11Z,100,true,79.104
2023-02-19T20:22:06Z,100,true,108.703
2023-02-20T20:10:15Z,100,true,58.027
2023-02-21T20:17:07Z,100,true,49.328
2023-02-22T20:13:08Z,100,true,22.681
2023-02-23T20:23:35Z,100,true,19.007
2023-02-24T20:16:26Z,100,true,73.337
2023-03-22T11:31:07Z,100,true,18.638
2023-03-22T20:12:46Z,100,true,13.311
2023-03-23T20:14:07Z,100,true,86.526
2023-03-24T20:19:23Z,10,false,0
2023-03-25T20:20:19Z,100,true,27.53
2023-03-27T20:14:40Z,100,true,95.368
2023-03-29T20:15:38Z,100,true,95.426
2023-03-30T20:14:13Z,50,timeout,0
2023-03-31T20:19:25Z,100,true,33.502
2023-04-01T20:16:51Z,100,true,51.725
2023-04-02T20:20:08Z,100,true,153.116
2023-04-03T20:22:58Z,100,true,39.583
2023-04-04T20:18:36Z,100,true,76.849
2023-04-05T20:17:35Z,100,true,90.064
2023-04-06T20:23:28Z,100,true,63.159
2023-04-07T20:22:28Z,100,true,68.534
2023-04-08T20:20:53Z,100,true,86.108
2023-04-09T20:17:27Z,100,true,130.921
2023-04-10T20:16:17Z,100,true,31.812
2023-04-11T20:11:00Z,100,true,23.914
2023-04-12T20:16:09Z,100,true,39.808
2023-04-13T20:16:28Z,100,true,20.336
2023-04-14T20:21:03Z,100,true,77.338
2023-04-15T20:18:19Z,100,true,41.528
2023-04-16T20:16:25Z,100,true,44.786
2023-04-17T20:17:09Z,100,true,37.646
2023-04-18T20:21:25Z,50,timeout,0
2023-04-19T20:15:59Z,100,true,48.631
2023-04-20T20:16:47Z,100,true,42.919
2023-04-21T20:15:22Z,100,true,90.398
2023-04-22T20:14:34Z,100,true,74.187
2023-04-23T20:18:38Z,100,true,119.497
2023-04-24T20:16:41Z,100,true,27.348
2023-04-25T20:13:08Z,100,true,55.186
2023-04-26T20:17:13Z,100,true,32.886
2023-04-27T20:15:32Z,100,true,59.533
2023-04-28T20:16:46Z,100,true,71.955
