2022-12-02T22:49:33Z,77,false,0
2022-12-03T23:07:51Z,2,false,0
2022-12-04T23:40:54Z,100,true,7.366
2022-12-05T22:54:15Z,2,false,0
2022-12-06T23:12:18Z,100,true,6.072
2022-12-07T22:56:51Z,77,timeout,0
2022-12-09T22:49:34Z,50,timeout,0
2022-12-10T22:53:31Z,100,true,21.531
2022-12-11T23:14:51Z,100,true,8.127
2022-12-12T22:53:35Z,77,timeout,0
2022-12-12T22:53:35Z,77,timeout,0
2023-01-02T22:33:11Z,100,true,4.798
2023-01-04T00:42:50Z,100,true,7.438
2023-01-04T23:21:23Z,77,timeout,0
2023-01-13T15:08:17Z,77,timeout,0
2023-01-14T23:16:42Z,77,timeout,0
2023-01-15T23:09:39Z,77,timeout,0
2023-01-16T23:07:01Z,77,timeout,0
2023-01-17T22:54:44Z,77,timeout,0
2023-01-19T00:41:31Z,100,true,8.647
2023-01-19T22:44:01Z,100,true,28.212
2023-01-20T23:54:49Z,77,timeout,0
2023-01-21T23:34:25Z,100,true,4.728
2023-01-23T01:15:43Z,77,timeout,0
2023-01-23T23:48:33Z,77,timeout,0
2023-01-24T21:38:05Z,77,timeout,0
2023-01-25T21:45:06Z,100,true,18.063
2023-01-26T21:28:23Z,77,timeout,0
2023-01-27T22:21:05Z,100,true,6.768
2023-01-28T21:53:15Z,100,true,6.651
2023-01-29T21:42:12Z,77,timeout,0
2023-01-30T21:13:56Z,100,true,6.071
2023-01-31T21:34:27Z,100,true,8.158
2023-02-01T22:44:18Z,100,true,24.153
2023-02-02T22:16:32Z,100,true,10.568999999999999
2023-02-03T21:52:39Z,100,true,4.511
2023-02-04T22:27:18Z,100,true,5.368
2023-02-05T23:22:12Z,100,true,11.276
2023-02-06T23:12:10Z,100,true,6.638
2023-02-07T23:18:19Z,100,true,12.751
2023-02-08T22:00:49Z,100,true,14.369
2023-02-10T21:35:08Z,100,true,7.392
2023-02-11T22:18:36Z,2,false,0
2023-02-12T21:31:35Z,100,true,9.943
2023-02-13T22:08:42Z,100,true,7.763
2023-02-14T21:23:12Z,100,true,5.447
2023-02-15T21:45:26Z,100,true,7.313
2023-02-16T22:13:40Z,100,true,18.566
2023-02-17T21:59:46Z,100,true,9.526
2023-02-18T21:42:41Z,100,true,5.401
2023-02-19T21:39:54Z,100,true,24.796
2023-02-20T21:41:36Z,100,true,4.561
2023-02-21T21:45:11Z,100,true,5.522
2023-02-22T21:58:09Z,100,true,6.8870000000000005
2023-02-23T22:00:25Z,2,false,0
2023-02-24T21:50:33Z,100,true,4.522
2023-03-22T12:52:05Z,95,timeout,0
2023-03-22T21:45:51Z,100,true,4.54
2023-03-23T21:28:44Z,100,true,29.842
2023-03-24T21:37:09Z,100,true,5.428
2023-03-27T22:29:36Z,2,false,0
2023-03-28T21:29:29Z,2,false,0
2023-03-29T21:34:27Z,2,false,0
2023-03-30T21:31:38Z,2,false,0
2023-03-31T21:55:12Z,2,false,0
2023-04-01T22:01:17Z,2,false,0
2023-04-02T21:36:15Z,2,false,0
2023-04-03T21:51:32Z,2,false,0
2023-04-04T21:49:54Z,2,false,0
2023-04-05T21:28:35Z,2,false,0
2023-04-06T21:48:00Z,2,false,0
2023-04-07T21:37:08Z,2,false,0
2023-04-08T21:33:04Z,2,false,0
2023-04-09T21:43:26Z,2,false,0
2023-04-10T21:29:38Z,2,false,0
2023-04-11T21:51:21Z,2,false,0
2023-04-12T22:29:17Z,2,false,0
2023-04-13T21:35:57Z,2,false,0
2023-04-14T21:48:07Z,2,false,0
2023-04-15T22:06:36Z,2,false,0
2023-04-16T21:43:52Z,2,false,0
2023-04-17T21:31:19Z,2,false,0
2023-04-18T22:43:02Z,2,false,0
2023-04-19T22:21:58Z,2,false,0
2023-04-20T21:56:06Z,2,false,0
2023-04-21T21:49:41Z,2,false,0
2023-04-22T21:57:30Z,2,false,0
2023-04-23T22:20:30Z,2,false,0
2023-04-24T21:59:49Z,2,false,0
2023-04-25T21:55:51Z,2,false,0
2023-04-26T22:53:40Z,2,false,0
2023-04-27T21:49:19Z,2,false,0
2023-04-28T22:12:25Z,2,false,0
