2023-01-21T22:16:34Z,2,false,0
2023-01-22T23:01:18Z,100,true,11.136
2023-01-23T22:37:56Z,100,true,14.934
2023-02-26T23:13:42Z,100,true,21.291
2023-02-27T22:53:24Z,100,true,11.837
2023-02-28T22:28:36Z,100,true,10.2
2023-03-01T22:53:29Z,100,true,10.06
2023-03-02T23:09:03Z,100,true,10.456
2023-03-03T23:02:10Z,100,true,10.844
2023-03-04T23:18:37Z,100,true,14.949
2023-03-05T23:36:21Z,100,true,27.081
2023-03-06T22:56:39Z,100,true,12.306
2023-03-07T22:54:05Z,100,true,10.327
2023-03-08T22:29:30Z,100,true,10.018
2023-03-09T23:01:07Z,100,true,12.091
2023-03-10T22:19:18Z,2,false,0
2023-03-12T21:55:12Z,2,false,0
2023-03-14T22:06:52Z,2,false,0
2023-03-15T22:12:38Z,100,true,8.804
2023-03-16T21:53:15Z,100,true,9.935
2023-03-17T22:26:23Z,2,false,0
2023-03-19T22:28:24Z,100,true,13.187
2023-03-20T17:34:49Z,100,true,24.601
2023-03-22T22:30:48Z,2,false,0
2023-03-23T22:01:46Z,100,true,14.081
2023-03-24T22:05:09Z,100,true,16.052
2023-03-26T23:00:47Z,2,false,0
2023-03-27T22:36:46Z,100,true,11.034
2023-03-28T22:17:01Z,2,false,0
2023-03-30T22:08:36Z,100,true,12.631
2023-03-31T22:19:59Z,100,true,10.081
2023-04-03T22:32:45Z,100,true,19.268
2023-04-04T22:08:58Z,2,false,0
2023-04-06T22:14:07Z,100,true,43.701
2023-04-07T22:16:04Z,2,false,0
2023-04-11T22:17:45Z,100,true,12.984
2023-04-12T22:06:13Z,2,false,0
2023-04-14T22:06:50Z,2,false,0
2023-04-15T21:54:19Z,100,true,29.319
2023-04-18T22:26:04Z,100,true,13.222
2023-04-19T23:03:36Z,100,true,17.354
2023-04-20T22:42:17Z,100,true,12.17
2023-04-21T23:12:04Z,100,true,23.012
2023-04-22T23:28:57Z,100,true,11.181
2023-04-23T23:05:57Z,100,true,15.175
