2022-12-03T23:15:14Z,100,true,16.83
2022-12-05T00:24:47Z,100,true,17.409
2022-12-06T00:11:21Z,100,true,19.838
2022-12-07T00:46:34Z,100,true,15.664
2022-12-08T00:14:59Z,100,true,13.604
2022-12-09T00:48:51Z,100,true,14.643
2022-12-09T23:43:08Z,100,true,12.14
2022-12-10T23:59:39Z,100,true,23.114
2022-12-11T23:11:50Z,100,true,13.771
2022-12-12T23:09:42Z,2,false,0
2022-12-12T23:09:42Z,2,false,0
