2023-01-09T23:35:45Z,100,true,19.883
2023-01-10T23:36:19Z,100,true,12.076
2023-01-11T23:34:38Z,100,true,13.019
2023-01-12T23:15:27Z,100,true,11.19
2023-01-13T23:49:31Z,100,true,15.073
2023-01-14T23:27:26Z,100,true,11.996
2023-01-15T23:20:37Z,2,false,0
