2023-01-21T22:16:34Z,2,false,0
2023-01-22T23:01:18Z,2,false,0
2023-01-23T22:37:56Z,2,false,0
2023-02-26T23:13:42Z,100,true,12.997
2023-02-28T22:28:36Z,100,true,9.983
2023-03-01T22:53:29Z,2,false,0
2023-03-02T23:09:03Z,100,true,11.024
2023-03-03T23:02:10Z,100,true,14.144
2023-03-04T23:18:37Z,100,true,11.135
2023-03-05T23:36:21Z,100,true,11.716
2023-03-06T22:56:39Z,100,true,17.199
2023-03-07T22:54:05Z,100,true,12.341
2023-03-08T22:29:30Z,100,true,15.063
2023-03-09T23:01:07Z,2,false,0
2023-03-10T22:19:18Z,100,true,11.789
2023-03-11T22:10:38Z,100,true,10.128
2023-03-12T21:55:12Z,2,false,0
2023-03-14T22:06:52Z,100,true,12.166
2023-03-15T22:12:38Z,2,false,0
2023-03-18T22:18:59Z,100,true,10.03
2023-03-19T22:28:24Z,100,true,12.226
2023-03-20T17:34:49Z,100,true,32.574
2023-03-22T22:30:48Z,100,true,13.08
2023-03-26T23:00:47Z,100,true,10.29
2023-03-27T22:36:46Z,100,true,12.575
2023-03-28T22:17:01Z,2,false,0
2023-03-31T22:19:59Z,2,false,0
2023-04-03T22:32:45Z,100,true,13.342
2023-04-04T22:08:58Z,2,false,0
2023-04-05T22:29:38Z,2,false,0
2023-04-11T22:17:45Z,100,true,15.059
2023-04-12T22:06:13Z,2,false,0
2023-04-13T21:43:56Z,2,false,0
2023-04-18T22:26:04Z,2,false,0
2023-04-19T23:03:36Z,100,true,11.977
2023-04-20T22:42:17Z,100,true,14.171
2023-04-21T23:12:04Z,100,true,15.158
2023-04-22T23:28:57Z,100,true,11.198
2023-04-23T23:05:57Z,100,true,12.051
