2023-01-21T22:16:34Z,2,false,0
2023-01-22T23:01:18Z,2,false,0
2023-01-23T22:37:56Z,2,false,0
2023-02-26T23:13:42Z,100,true,18.341
2023-02-27T22:53:24Z,100,true,11.08
2023-02-28T22:28:36Z,100,true,11.284
2023-03-01T22:53:29Z,2,false,0
2023-03-02T23:09:03Z,100,true,9.881
2023-03-03T23:02:10Z,100,true,13.119
2023-03-04T23:18:37Z,100,true,11.937
2023-03-05T23:36:21Z,100,true,9.936
2023-03-06T22:56:39Z,100,true,11.824
2023-03-07T22:54:05Z,100,true,12.037
2023-03-09T23:01:07Z,100,true,11.07
2023-03-10T22:19:18Z,100,true,11.323
2023-03-12T21:55:12Z,2,false,0
2023-03-14T22:06:52Z,100,true,11.984
2023-03-16T21:53:15Z,100,true,10.05
2023-03-18T22:18:59Z,100,true,15.207
2023-03-20T17:34:49Z,100,true,16.203
2023-03-22T22:30:48Z,100,true,14.257
2023-03-26T23:00:47Z,100,true,12.915
2023-03-27T22:36:46Z,100,true,14.961
2023-03-31T22:19:59Z,2,false,0
2023-04-01T21:58:02Z,2,false,0
2023-04-03T22:32:45Z,100,true,18.934
2023-04-04T22:08:58Z,2,false,0
2023-04-06T22:14:07Z,2,false,0
2023-04-11T22:17:45Z,2,false,0
2023-04-12T22:06:13Z,100,true,14.693999999999999
2023-04-18T22:26:04Z,2,false,0
2023-04-19T23:03:36Z,100,true,17.061
2023-04-20T22:42:17Z,100,true,56.85
2023-04-21T23:12:04Z,100,true,10.350999999999999
2023-04-22T23:28:57Z,100,true,10.789
2023-04-23T23:05:57Z,100,true,14.301
