2023-01-21T22:16:34Z,2,false,0
2023-01-22T23:01:18Z,2,false,0
2023-01-23T22:37:56Z,100,true,13.297
2023-02-26T23:13:42Z,50,timeout,0
2023-02-27T22:53:24Z,100,true,17.984
2023-02-28T22:28:36Z,100,true,10.103
2023-03-01T22:53:29Z,100,true,9.858
2023-03-02T23:09:03Z,100,true,11.984
2023-03-03T23:02:10Z,100,true,16.302
2023-03-04T23:18:37Z,100,true,14.997
2023-03-05T23:36:21Z,100,true,16.197
2023-03-06T22:56:39Z,100,true,11.215
2023-03-07T22:54:05Z,100,true,9.915
2023-03-08T22:29:30Z,100,true,11.585
2023-03-09T23:01:07Z,100,true,11.45
2023-03-10T22:19:18Z,100,true,9.897
2023-03-16T21:53:15Z,100,true,12.113
2023-03-17T22:26:23Z,2,false,0
2023-03-20T17:34:49Z,50,timeout,0
2023-03-22T22:30:48Z,2,false,0
2023-03-26T23:00:47Z,100,true,11.709
2023-04-01T21:58:02Z,2,false,0
2023-04-03T22:32:45Z,2,false,0
2023-04-04T22:08:58Z,2,false,0
2023-04-11T22:17:45Z,100,true,11.863
2023-04-12T22:06:13Z,2,false,0
2023-04-13T21:43:56Z,2,false,0
2023-04-18T22:26:04Z,2,false,0
2023-04-19T23:03:36Z,100,true,10.965
2023-04-20T22:42:17Z,100,true,9.886
2023-04-21T23:12:04Z,100,true,10.885
2023-04-22T23:28:57Z,100,true,59.208
2023-04-23T23:05:57Z,100,true,13.564
