2023-01-21T22:16:34Z,2,false,0
2023-01-22T23:01:18Z,2,false,0
2023-01-23T22:37:56Z,100,true,11.019
2023-02-26T23:13:42Z,95,timeout,0
2023-02-27T22:53:24Z,100,true,14.483
2023-02-28T22:28:36Z,100,true,18.012
2023-03-01T22:53:29Z,100,true,11.018
2023-03-02T23:09:03Z,100,true,12.516
2023-03-03T23:02:10Z,100,true,12.244
2023-03-04T23:18:37Z,100,true,10.707
2023-03-05T23:36:21Z,100,true,14.133
2023-03-06T22:56:39Z,100,true,10.221
2023-03-07T22:54:05Z,100,true,17.892
2023-03-08T22:29:30Z,100,true,11.599
2023-03-09T23:01:07Z,100,true,10.907
2023-03-10T22:19:18Z,2,false,0
2023-03-20T17:34:49Z,100,true,19.637
2023-03-22T22:30:48Z,2,false,0
2023-03-26T23:00:47Z,100,true,11.563
2023-03-31T22:19:59Z,2,false,0
2023-04-03T22:32:45Z,2,false,0
2023-04-04T22:08:58Z,2,false,0
2023-04-11T22:17:45Z,2,false,0
2023-04-12T22:06:13Z,2,false,0
2023-04-18T22:26:04Z,100,true,9.87
2023-04-19T23:03:36Z,100,true,11.723
2023-04-20T22:42:17Z,100,true,15.921
2023-04-21T23:12:04Z,100,true,10.978
2023-04-22T23:28:57Z,100,true,10.172
2023-04-23T23:05:57Z,100,true,11.28
