2022-12-01T23:09:20Z,100,true,16.219
2022-12-03T23:15:14Z,100,true,15.409
2022-12-05T00:24:47Z,100,true,18.435
2022-12-06T00:11:21Z,100,true,20.542
2022-12-07T00:46:34Z,100,true,19.822
2022-12-08T00:14:59Z,100,true,13.106
2022-12-09T00:48:51Z,100,true,18.084
2022-12-09T23:43:08Z,100,true,22.909
2022-12-10T23:59:39Z,100,true,18.377
2022-12-11T23:11:50Z,100,true,13.296
2022-12-12T23:09:42Z,100,true,14.307
2022-12-12T23:09:42Z,100,true,14.307
