2023-01-21T22:16:34Z,2,false,0
2023-01-22T23:01:18Z,2,false,0
2023-01-23T22:37:56Z,2,false,0
2023-02-26T23:13:42Z,100,true,16.505
2023-03-01T22:53:29Z,100,true,11.062
2023-03-03T23:02:10Z,100,true,9.768
2023-03-04T23:18:37Z,100,true,13.129
2023-03-05T23:36:21Z,100,true,14.051
2023-03-06T22:56:39Z,100,true,12.947
2023-03-07T22:54:05Z,100,true,10.02
2023-03-08T22:29:30Z,100,true,12.004
2023-03-09T23:01:07Z,100,true,17.97
2023-03-10T22:19:18Z,2,false,0
2023-03-20T17:34:49Z,100,true,16.074
2023-03-22T22:30:48Z,2,false,0
2023-04-01T21:58:02Z,100,true,10.223
2023-04-03T22:32:45Z,100,true,18.104
2023-04-04T22:08:58Z,2,false,0
2023-04-11T22:17:45Z,100,true,14.213
2023-04-12T22:06:13Z,2,false,0
2023-04-18T22:26:04Z,100,true,10.15
2023-04-19T23:03:36Z,2,false,0
2023-04-20T22:42:17Z,100,true,14.037
2023-04-21T23:12:04Z,100,true,26.627
2023-04-22T23:28:57Z,100,true,18.567
2023-04-23T23:05:57Z,100,true,11.097
