2022-12-01T23:09:20Z,100,true,12.306
2022-12-03T23:15:14Z,100,true,14.813
2022-12-05T00:24:47Z,100,true,12.844
2022-12-06T00:11:21Z,100,true,12.187
2022-12-07T00:46:34Z,2,false,0
2022-12-07T00:46:34Z,2,false,0
