2023-01-21T22:16:34Z,2,false,0
2023-01-22T23:01:18Z,2,false,0
2023-01-23T22:37:56Z,2,false,0
2023-01-25T21:38:34Z,2,false,0
2023-01-27T21:39:04Z,2,false,0
2023-01-28T21:48:09Z,2,false,0
2023-01-29T21:41:25Z,2,false,0
2023-01-30T21:29:49Z,2,false,0
2023-01-31T21:29:19Z,2,false,0
2023-02-01T21:52:49Z,100,true,7.811
2023-02-02T22:19:58Z,2,false,0
2023-02-03T21:51:10Z,2,false,0
2023-02-04T21:54:06Z,2,false,0
2023-02-05T21:36:14Z,2,false,0
2023-02-06T22:22:12Z,2,false,0
2023-02-07T21:34:58Z,2,false,0
2023-02-08T21:44:03Z,2,false,0
2023-02-10T21:40:37Z,2,false,0
2023-02-11T21:59:56Z,2,false,0
2023-02-12T22:04:50Z,2,false,0
2023-02-13T21:37:50Z,2,false,0
2023-02-14T21:44:02Z,2,false,0
2023-02-15T21:35:33Z,2,false,0
2023-02-16T21:44:33Z,2,false,0
2023-02-17T21:28:58Z,2,false,0
2023-02-18T21:41:29Z,2,false,0
2023-02-19T21:33:40Z,2,false,0
2023-02-20T21:29:55Z,2,false,0
2023-02-21T21:34:27Z,2,false,0
2023-02-22T21:41:30Z,2,false,0
2023-02-23T21:35:28Z,2,false,0
2023-02-24T21:44:38Z,2,false,0
2023-02-25T21:38:44Z,2,false,0
2023-02-26T23:13:42Z,100,true,16.287
2023-02-27T22:53:24Z,100,true,12.645
2023-02-28T22:28:36Z,100,true,9.907
2023-03-01T22:53:29Z,100,true,17.092
2023-03-02T23:09:03Z,100,true,13.549
2023-03-03T23:02:10Z,100,true,10.481
2023-03-04T23:18:37Z,100,true,9.937
2023-03-05T23:36:21Z,100,true,11.813
2023-03-06T22:56:39Z,100,true,10.178
2023-03-07T22:54:05Z,100,true,10.905
2023-03-09T23:01:07Z,100,true,10.809
2023-03-10T22:19:18Z,2,false,0
2023-03-11T22:10:38Z,100,true,31.202
2023-03-13T21:38:58Z,100,true,10.149
2023-03-14T22:06:52Z,2,false,0
2023-03-15T22:12:38Z,2,false,0
2023-03-16T21:53:15Z,100,true,11.056
2023-03-17T22:26:23Z,2,false,0
2023-03-18T22:18:59Z,2,false,0
2023-03-19T22:28:24Z,100,true,28.305
2023-03-20T17:34:49Z,50,timeout,0
2023-03-22T22:30:48Z,2,false,0
2023-03-23T22:01:46Z,100,true,10.107
2023-03-24T22:05:09Z,2,false,0
2023-03-25T21:53:01Z,2,false,0
2023-03-26T23:00:47Z,100,true,29.352
2023-03-27T22:36:46Z,2,false,0
2023-03-28T22:17:01Z,2,false,0
2023-03-29T22:01:03Z,2,false,0
2023-03-30T22:08:36Z,100,true,11.035
2023-03-31T22:19:59Z,100,true,10.453
2023-04-01T21:58:02Z,100,true,10.454
2023-04-02T21:45:02Z,2,false,0
2023-04-03T22:32:45Z,100,true,10.281
2023-04-04T22:08:58Z,2,false,0
2023-04-05T22:29:38Z,2,false,0
2023-04-06T22:14:07Z,100,true,11.292
2023-04-07T22:16:04Z,100,true,9.901
2023-04-08T21:54:59Z,2,false,0
2023-04-09T21:57:16Z,2,false,0
2023-04-10T21:53:51Z,2,false,0
2023-04-11T22:17:45Z,100,true,10.099
2023-04-12T22:06:13Z,2,false,0
2023-04-14T22:06:50Z,100,true,24.993
2023-04-15T21:54:19Z,100,true,12.062
2023-04-16T21:37:23Z,100,true,16.237
2023-04-17T21:29:52Z,2,false,0
2023-04-18T22:26:04Z,100,true,10.021
2023-04-19T23:03:36Z,100,true,11.448
2023-04-20T22:42:17Z,100,true,9.982
2023-04-21T23:12:04Z,100,true,10.813
2023-04-22T23:28:57Z,100,true,10.149
2023-04-23T23:05:57Z,100,true,18.678
