2022-12-01T23:09:20Z,100,true,10.998
2022-12-03T23:15:14Z,100,true,11.249
2022-12-05T00:24:47Z,100,true,11.928
2022-12-06T00:11:21Z,100,true,10.841
2022-12-07T00:46:34Z,100,true,12.098
2022-12-08T00:14:59Z,100,true,11.629
2022-12-09T00:48:51Z,100,true,11.009
2022-12-09T23:43:08Z,100,true,9.859
2022-12-10T23:59:39Z,100,true,9.741
2022-12-11T23:11:50Z,100,true,12.674
2022-12-12T23:09:42Z,100,true,12.186
2022-12-12T23:09:42Z,100,true,12.186
