2022-12-01T23:09:20Z,100,true,11.737
2022-12-03T23:15:14Z,100,true,10.829
2022-12-05T00:24:47Z,100,true,10.751
2022-12-06T00:11:21Z,100,true,12.279
2022-12-07T00:46:34Z,100,true,9.985
2022-12-08T00:14:59Z,100,true,10.836
2022-12-09T00:48:51Z,100,true,10.143
2022-12-09T23:43:08Z,100,true,10.861
2022-12-10T23:59:39Z,100,true,10.949
2022-12-11T23:11:50Z,100,true,10.849
2022-12-12T23:09:42Z,100,true,11.178
2022-12-12T23:09:42Z,100,true,11.178
