2022-12-01T23:09:20Z,100,true,14.361
2022-12-03T23:15:14Z,100,true,29.99
2022-12-05T00:24:47Z,100,true,15.67
2022-12-06T00:11:21Z,100,true,18.341
2022-12-07T00:46:34Z,100,true,18.178
2022-12-08T00:14:59Z,100,true,13.425
2022-12-09T00:48:51Z,100,true,16.405
2022-12-09T23:43:08Z,100,true,12.107
2022-12-10T23:59:39Z,2,false,0
2022-12-10T23:59:39Z,2,false,0
