2022-12-02T20:22:59Z,100,true,69.09
2022-12-03T20:18:43Z,100,true,128.926
2022-12-04T20:24:35Z,100,true,57.844
2022-12-05T20:27:45Z,30,timeout,0
2022-12-06T20:24:33Z,10,false,0
2022-12-07T20:26:35Z,100,true,50.232
2022-12-08T20:26:32Z,50,timeout,0
2022-12-09T20:25:17Z,50,timeout,0
2022-12-10T20:22:51Z,100,true,143.724
2022-12-11T20:27:46Z,100,true,47.814
2022-12-12T20:29:37Z,30,timeout,0
2022-12-13T20:27:36Z,100,true,140.751
2023-01-01T20:26:54Z,100,true,60.336
2023-01-02T20:30:23Z,25,timeout,0
2023-01-03T20:30:18Z,50,timeout,0
2023-01-04T20:28:09Z,30,timeout,0
2023-01-05T20:29:49Z,100,true,173.031
2023-01-06T20:30:35Z,100,true,91.975
2023-01-07T20:27:34Z,100,true,101.331
2023-01-08T20:25:39Z,10,false,0
2023-01-09T20:31:26Z,10,false,0
2023-01-10T20:25:25Z,50,timeout,0
2023-01-11T20:31:13Z,100,true,158.554
2023-01-12T20:28:28Z,100,true,110.246
2023-01-13T20:26:13Z,50,timeout,0
2023-01-14T20:25:20Z,100,true,79.63
2023-01-15T20:29:54Z,25,timeout,0
2023-01-16T20:26:47Z,10,false,0
2023-01-17T20:28:16Z,25,timeout,0
2023-01-18T20:24:35Z,10,false,0
2023-01-19T20:28:28Z,14,timeout,0
2023-01-20T20:28:06Z,100,true,79.703
2023-01-21T20:25:39Z,100,true,135.654
2023-01-22T20:28:53Z,100,true,82.373
2023-01-23T20:27:25Z,100,true,80.033
2023-01-24T20:30:47Z,10,false,0
2023-01-25T20:30:59Z,10,false,0
2023-01-26T20:28:23Z,61,timeout,0
2023-01-27T20:27:52Z,10,false,0
2023-01-28T20:29:56Z,100,true,105.026
2023-01-29T20:37:05Z,10,false,0
2023-01-30T20:28:35Z,100,true,45.641
2023-01-31T20:30:31Z,30,timeout,0
2023-02-01T20:29:27Z,55,timeout,0
2023-02-02T20:29:22Z,25,timeout,0
2023-02-03T20:34:48Z,100,true,125.686
2023-02-04T20:27:50Z,100,true,86.7
2023-02-05T20:29:34Z,10,false,0
2023-02-06T20:30:57Z,50,timeout,0
2023-02-07T20:28:53Z,100,true,50.138
2023-02-08T20:27:52Z,100,true,69.627
2023-02-10T20:30:33Z,100,true,117.591
2023-02-11T20:27:01Z,10,false,0
2023-02-12T20:28:07Z,100,true,128.527
2023-02-13T20:29:16Z,100,true,104.036
2023-02-14T20:31:33Z,30,timeout,0
2023-02-15T20:27:49Z,25,timeout,0
2023-02-16T20:29:04Z,100,true,70.558
2023-02-17T20:25:51Z,30,timeout,0
2023-02-18T20:28:40Z,30,timeout,0
2023-02-19T20:29:13Z,10,false,0
2023-02-20T20:28:53Z,100,true,113.889
2023-02-21T20:28:07Z,10,false,0
2023-02-22T20:27:36Z,10,false,0
2023-02-23T20:27:49Z,10,false,0
2023-02-24T20:30:42Z,50,timeout,0
2023-02-25T20:28:29Z,10,false,0
2023-02-26T20:28:27Z,10,false,0
2023-02-27T20:26:26Z,10,false,0
2023-02-28T20:27:53Z,30,timeout,0
2023-03-01T20:29:10Z,30,timeout,0
2023-03-02T20:25:47Z,100,true,77.749
2023-03-03T20:24:35Z,10,false,0
2023-03-04T20:30:23Z,50,timeout,0
2023-03-05T20:34:01Z,10,false,0
2023-03-06T20:28:25Z,10,false,0
2023-03-07T20:27:40Z,100,true,91.718
2023-03-08T20:27:10Z,14,timeout,0
2023-03-09T20:24:23Z,10,false,0
2023-03-10T20:27:32Z,10,false,0
2023-03-11T20:28:07Z,10,false,0
2023-03-12T20:26:34Z,100,true,70.67
2023-03-13T20:26:40Z,100,true,100.438
2023-03-14T20:23:16Z,10,false,0
2023-03-15T20:22:34Z,10,false,0
2023-03-16T20:20:25Z,100,true,54.292
2023-03-17T20:24:08Z,25,timeout,0
2023-03-18T20:25:44Z,100,true,65.387
2023-03-20T12:08:30Z,55,timeout,0
2023-03-22T20:24:13Z,10,false,0
2023-03-23T20:23:15Z,100,true,64.173
2023-03-24T20:25:20Z,100,true,65.529
2023-03-25T20:25:24Z,100,true,82.619
2023-03-26T20:29:36Z,14,timeout,0
2023-03-27T20:26:28Z,50,timeout,0
2023-03-28T20:25:18Z,100,true,144.344
2023-03-29T20:31:01Z,50,timeout,0
2023-03-30T20:26:00Z,10,false,0
2023-03-31T20:28:26Z,40,timeout,0
2023-04-01T20:26:30Z,100,true,84.314
2023-04-02T20:29:21Z,30,timeout,0
2023-04-03T20:27:06Z,100,true,74.899
2023-04-04T20:25:19Z,100,true,163.846
2023-04-05T20:28:35Z,50,timeout,0
2023-04-06T20:28:42Z,50,timeout,0
2023-04-07T20:29:25Z,10,false,0
2023-04-08T20:27:48Z,10,false,0
2023-04-09T20:30:18Z,10,false,0
2023-04-10T20:26:12Z,10,false,0
2023-04-11T20:25:47Z,50,timeout,0
2023-04-12T20:28:18Z,10,false,0
2023-04-13T20:26:24Z,100,true,80.38
2023-04-14T20:25:42Z,30,timeout,0
2023-04-15T20:26:00Z,100,true,65.833
2023-04-16T20:28:49Z,45,timeout,0
2023-04-17T20:25:37Z,100,true,141.823
2023-04-18T20:25:25Z,100,true,87.24
2023-04-19T20:25:40Z,100,true,161.28
2023-04-20T20:23:29Z,50,timeout,0
2023-04-21T20:28:16Z,10,false,0
2023-04-22T20:27:56Z,10,false,0
2023-04-23T20:18:01Z,100,true,48.941
