2022-12-02T20:23:00Z,100,true,55.093
2022-12-03T20:18:44Z,100,true,25.839
2022-12-04T20:24:36Z,50,timeout,0
2022-12-05T20:27:46Z,25,timeout,0
2022-12-06T20:24:34Z,10,false,0
2022-12-07T20:26:36Z,50,timeout,0
2022-12-08T20:26:33Z,100,true,54.362
2022-12-09T20:25:18Z,71,timeout,0
2022-12-10T20:22:52Z,100,true,103.974
2022-12-11T20:27:47Z,10,false,0
2022-12-12T20:29:37Z,100,true,48.962
2022-12-13T20:27:37Z,30,timeout,0
2023-01-01T20:26:55Z,50,timeout,0
2023-01-02T20:30:24Z,100,true,110.248
2023-01-03T20:30:18Z,10,false,0
2023-01-04T20:28:10Z,100,true,96.059
2023-01-05T20:29:50Z,25,timeout,0
2023-01-06T20:30:36Z,68,timeout,0
2023-01-07T20:27:35Z,100,true,136.766
2023-01-08T20:25:40Z,100,true,73.679
2023-01-09T20:31:26Z,25,timeout,0
2023-01-10T20:25:26Z,45,timeout,0
2023-01-11T20:31:14Z,25,timeout,0
2023-01-12T20:28:29Z,25,timeout,0
2023-01-13T20:26:14Z,10,false,0
2023-01-14T20:25:21Z,100,true,78.674
2023-01-15T20:29:55Z,100,true,118.86
2023-01-16T20:26:48Z,100,true,148.936
2023-01-17T20:28:18Z,100,true,99.735
2023-01-18T20:24:36Z,100,true,136.261
2023-01-19T20:28:29Z,100,true,54.596
2023-01-20T20:28:06Z,25,timeout,0
2023-01-21T20:25:40Z,25,timeout,0
2023-01-22T20:28:54Z,100,true,110.6
2023-01-23T20:27:26Z,20,timeout,0
2023-01-24T20:30:48Z,10,false,0
2023-01-25T20:30:59Z,50,timeout,0
2023-01-26T20:28:24Z,100,true,111.174
2023-01-27T20:27:52Z,10,false,0
2023-01-28T20:29:57Z,25,timeout,0
2023-01-29T20:37:06Z,10,false,0
2023-01-30T20:28:35Z,10,false,0
2023-01-31T20:30:32Z,50,timeout,0
2023-02-01T20:29:28Z,10,false,0
2023-02-02T20:29:22Z,100,true,100.008
2023-02-03T20:34:48Z,100,true,171.858
2023-02-04T20:27:50Z,100,true,132.07
2023-02-05T20:29:35Z,25,timeout,0
2023-02-06T20:30:57Z,50,timeout,0
2023-02-07T20:28:53Z,50,timeout,0
2023-02-08T20:27:52Z,100,true,97.582
2023-02-10T20:30:33Z,50,timeout,0
2023-02-11T20:27:02Z,50,timeout,0
2023-02-12T20:28:08Z,100,true,85.911
2023-02-13T20:29:17Z,10,false,0
2023-02-14T20:31:34Z,10,false,0
2023-02-15T20:27:49Z,10,false,0
2023-02-16T20:29:05Z,10,false,0
2023-02-17T20:25:52Z,100,true,118.968
2023-02-18T20:28:41Z,100,true,102.448
2023-02-19T20:29:13Z,25,timeout,0
2023-02-20T20:28:54Z,100,true,87.406
2023-02-21T20:28:08Z,10,false,0
2023-02-22T20:27:37Z,100,true,46.406
2023-02-23T20:27:50Z,10,false,0
2023-02-24T20:30:42Z,50,timeout,0
2023-02-25T20:28:29Z,10,false,0
2023-02-26T20:28:28Z,10,false,0
2023-02-27T20:26:27Z,10,false,0
2023-02-28T20:27:54Z,100,true,103.465
2023-03-01T20:29:11Z,10,false,0
2023-03-02T20:25:48Z,100,true,108.747
2023-03-03T20:24:36Z,25,timeout,0
2023-03-04T20:30:23Z,10,false,0
2023-03-05T20:34:01Z,10,false,0
2023-03-06T20:28:25Z,10,false,0
2023-03-07T20:27:41Z,50,timeout,0
2023-03-08T20:27:10Z,10,false,0
2023-03-09T20:24:24Z,75,timeout,0
2023-03-10T20:27:32Z,100,true,30.081
2023-03-11T20:28:07Z,100,true,80.206
2023-03-12T20:26:35Z,50,timeout,0
2023-03-13T20:26:40Z,100,true,38.737
2023-03-14T20:23:17Z,10,false,0
2023-03-15T20:22:35Z,100,true,154.856
2023-03-16T20:20:25Z,10,false,0
2023-03-17T20:24:09Z,100,true,83.391
2023-03-18T20:25:45Z,100,true,88.485
2023-03-20T12:08:30Z,10,false,0
2023-03-22T20:24:14Z,50,timeout,0
2023-03-23T20:23:16Z,100,true,62.993
2023-03-24T20:25:20Z,10,false,0
2023-03-25T20:25:24Z,10,false,0
2023-03-26T20:29:36Z,100,true,68.74
2023-03-27T20:26:29Z,10,false,0
2023-03-28T20:25:19Z,10,false,0
2023-03-29T20:31:02Z,50,timeout,0
2023-03-30T20:26:01Z,100,true,147.192
2023-03-31T20:28:27Z,100,true,142.481
2023-04-01T20:26:31Z,10,false,0
2023-04-02T20:29:21Z,10,false,0
2023-04-03T20:27:06Z,25,timeout,0
2023-04-04T20:25:20Z,100,true,94.944
2023-04-05T20:28:35Z,40,timeout,0
2023-04-06T20:28:42Z,50,timeout,0
2023-04-07T20:29:26Z,10,false,0
2023-04-08T20:27:48Z,100,true,49.351
2023-04-09T20:30:18Z,50,timeout,0
2023-04-10T20:26:12Z,10,false,0
2023-04-11T20:25:48Z,100,true,42.883
2023-04-12T20:28:18Z,10,false,0
2023-04-13T20:26:25Z,100,true,67.05
2023-04-14T20:25:43Z,10,false,0
2023-04-15T20:26:01Z,10,false,0
2023-04-16T20:28:50Z,10,false,0
2023-04-17T20:25:38Z,10,false,0
2023-04-18T20:25:25Z,10,false,0
2023-04-19T20:25:41Z,100,true,48.247
2023-04-20T20:23:30Z,50,timeout,0
2023-04-21T20:28:17Z,50,timeout,0
2023-04-22T20:27:56Z,100,true,90.315
2023-04-23T20:18:03Z,100,true,66.754
