2023-01-21T21:58:07Z,2,false,0
2023-01-22T22:11:29Z,2,false,0
2023-01-23T22:13:16Z,2,false,0
2023-02-27T10:51:15Z,50,timeout,0
2023-02-27T21:55:56Z,2,false,0
2023-03-01T21:59:43Z,50,timeout,0
2023-03-02T21:59:08Z,50,timeout,0
2023-03-03T22:13:05Z,100,true,5.593
2023-03-04T21:59:30Z,2,false,0
2023-03-06T21:54:10Z,100,true,5.621
2023-03-07T21:23:37Z,50,timeout,0
2023-03-09T21:52:59Z,50,timeout,0
2023-03-10T22:00:31Z,50,timeout,0
2023-03-20T22:11:50Z,50,timeout,0
2023-03-23T01:07:09Z,50,timeout,0
2023-03-24T00:18:35Z,50,timeout,0
2023-03-27T01:00:23Z,50,timeout,0
2023-03-28T01:10:38Z,50,timeout,0
2023-03-29T00:58:24Z,50,timeout,0
2023-03-31T22:09:14Z,50,timeout,0
2023-04-18T21:25:20Z,2,false,0
2023-04-20T00:34:48Z,2,false,0
2023-04-21T02:13:32Z,2,false,0
2023-04-22T00:59:28Z,50,timeout,0
2023-04-23T01:06:51Z,2,false,0
2023-04-25T22:34:47Z,2,false,0
2023-04-29T22:47:57Z,2,false,0
