2022-12-02T22:06:52Z,2,false,0
2022-12-03T22:07:22Z,2,false,0
2022-12-04T22:36:29Z,2,false,0
2022-12-05T22:31:35Z,100,true,13.56
2022-12-06T22:06:55Z,2,false,0
2022-12-07T22:10:29Z,2,false,0
2022-12-08T22:20:02Z,2,false,0
