2023-01-10T22:10:08Z,2,false,0
2023-01-11T22:09:34Z,2,false,0
2023-01-12T22:13:37Z,2,false,0
2023-01-13T22:31:36Z,2,false,0
2023-01-14T22:13:28Z,2,false,0
2023-01-15T22:13:46Z,2,false,0
2023-01-16T22:09:42Z,2,false,0
2023-01-17T22:10:26Z,2,false,0
