2022-12-02T22:06:52Z,77,false,0
2022-12-03T22:07:22Z,2,false,0
2022-12-04T22:36:29Z,100,true,32.596
2022-12-05T22:31:35Z,30,timeout,0
2022-12-06T22:06:55Z,2,false,0
2022-12-07T22:10:29Z,100,true,38.773
2022-12-08T22:20:02Z,100,true,29.079
2023-01-01T22:01:37Z,2,false,0
2023-01-02T22:03:06Z,2,false,0
2023-01-03T22:00:39Z,2,false,0
2023-01-04T22:42:43Z,2,false,0
2023-01-05T22:12:46Z,2,false,0
2023-01-06T22:10:08Z,2,false,0
2023-01-07T21:52:52Z,2,false,0
2023-01-08T21:26:46Z,2,false,0
2023-01-09T22:08:21Z,2,false,0
2023-01-10T22:10:08Z,2,false,0
2023-01-11T22:09:34Z,2,false,0
2023-01-12T22:13:37Z,2,false,0
2023-01-13T22:31:36Z,2,false,0
2023-01-14T22:13:28Z,2,false,0
2023-01-15T22:13:46Z,2,false,0
2023-01-16T22:09:42Z,2,false,0
2023-01-17T22:10:26Z,2,false,0
2023-01-19T22:13:15Z,2,false,0
2023-01-20T22:12:46Z,2,false,0
2023-01-21T21:58:07Z,2,false,0
2023-01-22T22:11:29Z,2,false,0
2023-01-23T22:13:16Z,2,false,0
2023-01-30T21:16:38Z,2,false,0
2023-01-31T21:16:37Z,2,false,0
2023-02-01T21:24:23Z,2,false,0
2023-02-02T21:24:15Z,2,false,0
2023-02-03T21:18:16Z,2,false,0
2023-02-04T21:30:00Z,2,false,0
2023-02-05T21:18:17Z,2,false,0
2023-02-06T21:21:17Z,2,false,0
2023-02-07T21:24:56Z,2,false,0
2023-02-08T21:13:26Z,2,false,0
2023-02-10T21:18:35Z,2,false,0
2023-02-11T21:51:35Z,2,false,0
2023-02-12T21:17:13Z,2,false,0
2023-02-13T21:22:15Z,2,false,0
2023-02-14T21:25:24Z,2,false,0
2023-02-15T21:25:56Z,2,false,0
2023-02-16T21:19:06Z,2,false,0
2023-02-17T21:19:41Z,2,false,0
2023-02-18T21:23:07Z,2,false,0
2023-02-19T21:22:16Z,2,false,0
2023-02-20T21:20:53Z,2,false,0
2023-02-21T21:17:27Z,2,false,0
2023-02-27T10:51:15Z,2,false,0
2023-02-27T21:55:56Z,2,false,0
2023-03-01T21:59:43Z,2,false,0
2023-03-02T21:59:08Z,2,false,0
2023-03-03T22:13:05Z,2,false,0
2023-03-04T21:59:30Z,2,false,0
2023-03-06T21:54:10Z,2,false,0
2023-03-07T21:23:37Z,2,false,0
2023-03-09T21:52:59Z,2,false,0
2023-03-10T22:00:31Z,2,false,0
2023-03-11T21:56:56Z,2,false,0
2023-03-12T21:01:27Z,2,false,0
2023-03-13T20:49:25Z,2,false,0
2023-03-14T21:11:17Z,2,false,0
2023-03-15T21:39:31Z,2,false,0
2023-03-16T21:38:16Z,2,false,0
2023-03-17T21:35:00Z,2,false,0
2023-03-18T21:49:50Z,2,false,0
2023-03-19T21:40:17Z,2,false,0
2023-03-20T22:11:50Z,2,false,0
2023-03-23T01:07:09Z,2,false,0
2023-03-24T00:18:35Z,2,false,0
2023-03-25T01:03:30Z,2,false,0
2023-03-26T00:49:53Z,2,false,0
2023-03-27T01:00:23Z,2,false,0
2023-03-28T01:10:38Z,2,false,0
2023-03-29T00:58:24Z,2,false,0
2023-03-30T00:26:31Z,2,false,0
2023-03-31T22:09:14Z,2,false,0
2023-04-01T22:07:13Z,2,false,0
2023-04-03T00:43:06Z,2,false,0
2023-04-05T20:54:17Z,2,false,0
2023-04-06T22:10:11Z,2,false,0
2023-04-08T00:44:50Z,2,false,0
2023-04-10T21:51:52Z,2,false,0
2023-04-14T21:56:00Z,2,false,0
2023-04-15T22:08:32Z,2,false,0
2023-04-16T21:42:36Z,2,false,0
2023-04-17T22:01:32Z,2,false,0
2023-04-18T21:25:20Z,2,false,0
2023-04-20T00:34:48Z,2,false,0
2023-04-21T02:13:32Z,2,false,0
2023-04-22T00:59:28Z,2,false,0
2023-04-23T01:06:51Z,2,false,0
2023-04-25T22:34:47Z,2,false,0
2023-04-29T22:47:57Z,2,false,0
