2022-12-02T20:29:45Z,50,false,0
2022-12-03T20:31:09Z,10,false,0
2022-12-04T20:30:58Z,50,timeout,0
2022-12-05T20:30:55Z,50,timeout,0
2022-12-07T20:20:50Z,10,false,0
2022-12-08T20:30:32Z,61,timeout,0
2022-12-09T20:20:23Z,100,true,58.217
2023-01-01T20:27:09Z,25,timeout,0
2023-01-02T20:30:56Z,100,true,128.714
2023-01-03T20:30:54Z,25,timeout,0
2023-01-04T20:34:38Z,25,timeout,0
2023-01-05T20:27:24Z,100,true,84.29
2023-01-06T20:29:59Z,30,timeout,0
2023-01-07T20:29:11Z,25,timeout,0
2023-01-08T20:30:26Z,25,timeout,0
2023-01-09T20:29:39Z,30,timeout,0
2023-01-10T20:30:14Z,100,true,150.87
2023-01-11T20:30:21Z,10,false,0
2023-01-12T20:30:51Z,10,false,0
2023-01-13T20:49:42Z,10,false,0
2023-01-14T20:30:21Z,30,timeout,0
2023-01-15T20:35:55Z,45,timeout,0
2023-01-16T20:30:47Z,10,false,0
2023-01-17T20:32:07Z,10,false,0
2023-01-19T20:32:09Z,10,false,0
2023-01-20T20:32:27Z,10,false,0
2023-01-21T20:30:48Z,10,false,0
2023-01-22T20:31:01Z,10,false,0
2023-01-23T20:31:08Z,10,false,0
2023-01-30T20:29:55Z,10,false,0
2023-02-01T12:13:11Z,45,timeout,0
2023-02-01T20:29:20Z,100,true,96.301
2023-02-02T20:28:41Z,10,false,0
2023-02-03T20:30:36Z,10,false,0
2023-02-04T20:29:16Z,10,false,0
2023-02-05T20:30:33Z,10,false,0
2023-02-06T20:30:34Z,10,false,0
2023-02-07T20:27:31Z,10,false,0
2023-02-08T20:27:05Z,10,false,0
2023-02-10T20:27:42Z,10,false,0
2023-02-11T20:28:51Z,10,false,0
2023-02-12T20:26:01Z,100,true,78.059
2023-02-13T20:30:54Z,25,timeout,0
2023-02-14T20:29:39Z,10,false,0
2023-02-15T20:30:23Z,10,false,0
2023-02-16T20:25:21Z,10,false,0
2023-02-17T20:28:26Z,25,timeout,0
2023-02-18T20:26:58Z,10,false,0
2023-02-19T20:28:21Z,50,timeout,0
2023-02-20T20:29:24Z,10,false,0
2023-02-21T20:26:03Z,10,false,0
2023-02-27T09:20:33Z,100,true,17.091
2023-02-27T20:29:19Z,60,timeout,0
2023-03-01T20:26:57Z,50,timeout,0
2023-03-02T20:28:05Z,100,true,177.554
2023-03-03T20:35:51Z,85,timeout,0
2023-03-04T20:26:42Z,30,timeout,0
2023-03-06T20:21:56Z,100,true,118.517
2023-03-09T20:20:27Z,50,timeout,0
2023-03-10T20:27:43Z,100,true,144.791
2023-03-11T20:23:17Z,100,true,41.759
2023-03-15T20:23:38Z,10,false,0
2023-03-16T20:20:02Z,30,timeout,0
2023-03-17T20:22:43Z,100,true,39.702
2023-03-18T20:22:20Z,100,true,37.695
2023-03-19T20:23:11Z,100,true,44.446
2023-03-20T20:17:52Z,100,true,31.651
2023-03-22T20:25:18Z,100,true,169.314
2023-03-23T20:25:51Z,10,false,0
2023-03-24T20:22:16Z,100,true,35.247
2023-03-25T20:22:43Z,100,true,139.761
2023-03-26T20:24:52Z,100,true,56.972
2023-03-27T20:24:16Z,100,true,96.779
2023-03-28T20:24:35Z,10,false,0
2023-03-29T20:23:55Z,100,true,131.996
2023-03-30T20:25:41Z,10,false,0
2023-03-31T20:25:04Z,25,timeout,0
2023-04-01T20:26:32Z,100,true,151.629
2023-04-02T20:22:44Z,100,true,84.947
2023-04-06T20:24:48Z,100,true,69.264
2023-04-07T20:22:47Z,100,true,56.938
2023-04-08T20:20:47Z,100,true,55.024
2023-04-10T20:27:02Z,10,false,0
2023-04-11T20:36:05Z,50,timeout,0
2023-04-15T20:25:39Z,55,timeout,0
2023-04-17T20:25:13Z,10,false,0
2023-04-19T20:24:38Z,30,timeout,0
2023-04-20T20:19:03Z,100,true,136.736
2023-04-21T20:26:19Z,30,timeout,0
2023-04-22T20:21:39Z,100,true,120.051
2023-04-24T20:31:07Z,100,true,130.118
2023-04-25T20:30:53Z,50,timeout,0
2023-04-28T20:31:46Z,50,timeout,0
